{
  "apps": [{
    "name": "qianzhan-zmxy-nodejs",
    "script": "www/production.js",
    "cwd": "/data/ProjectServer/node-zmxy-20010/qianzhan-zmxy-nodejs",
    "exec_mode": "cluster",
    "instances": 8,
    "max_memory_restart": "200M",
    "autorestart": true,
    "node_args": [],
    "args": [],
    "env": {

    }
  }]
}
